{
  "name": "Customer",
  "base": "User",
  "strict": false,
  "idInjection": false,
  "options": {
    "validateUpsert": true
  },
  "properties": {
    "cust_id": {
      "type": "number",
      "id": true,
      "required": true,
      "index": true
    },
    "name": {
      "type": "string",
      "required": true
    },
    "dob": {
      "type": "date"
    },
    "addresses": {
      "type": [
        "object"
      ],
      "required": false
    },
    "location": {
      "type": "geopoint",
      "required": true
    },
    "phone": {
      "type": [
        "string"
      ]
    }
  },
  "validations": [],
  "relations": {},
  "acls": [],
  "methods": {}
}
