{
  "name": "Description",
  "base": "Model",
  "strict": true,
  "idInjection": false,
  "options": {
    "validateUpsert": true
  },
  "properties": {
    "lang": {
      "type": "string"
    },
    "value": {
      "type": "string"
    }
  },
  "validations": [],
  "relations": {},
  "acls": [],
  "methods": {}
}
